{
  "name": "kick-right-powerful",
  "stages": [
    {
      "pGains": {
        "shoulder-roll": 8,
        "ankle-pitch": 64
      },
      "keyFrames": [
        {
          "moveCycles": 62,
          "values": {
            "shoulder-pitch-r": 1498,
            "shoulder-pitch-l": 2518,
            "shoulder-roll-r": 1845,
            "shoulder-roll-l": 2248,
            "elbow-r": 2381,
            "elbow-l": 1712,
            "hip-yaw": 2048,
            "hip-roll": 2052,
            "hip-pitch": 1637,
            "knee": 2653,
            "ankle-pitch": 2389,
            "ankle-roll": 2057,
            "head-pan": 2048,
            "head-tilt": 2161
          }
        },
        {
          "moveCycles": 25,
          "values": {
            "shoulder-pitch-r": 1407,
            "shoulder-pitch-l": 2420,
            "shoulder-roll-r": 1837,
            "shoulder-roll-l": 2287,
            "elbow-r": 2383,
            "elbow-l": 1714,
            "hip-yaw-r": 2050,
            "hip-yaw-l": 2050,
            "hip-roll-r": 2057,
            "hip-roll-l": 2043,
            "hip-pitch": 1637,
            "knee-r": 2646,
            "knee-l": 1443,
            "ankle-pitch": 2389,
            "ankle-roll-r": 2203,
            "ankle-roll-l": 2160,
            "head-pan": 2050,
            "head-tilt": 2207
          }
        },
        {
          "moveCycles": 9,
          "values": {
            "shoulder-pitch-r": 1407,
            "shoulder-pitch-l": 2420,
            "shoulder-roll-r": 1837,
            "shoulder-roll-l": 2287,
            "elbow-r": 2383,
            "elbow-l": 1714,
            "hip-yaw-r": 2050,
            "hip-yaw-l": 2050,
            "hip-roll-r": 2123,
            "hip-roll-l": 2010,
            "hip-pitch-r": 1434,
            "hip-pitch-l": 2593,
            "knee-r": 3020,
            "knee-l": 1394,
            "ankle-pitch-r": 2533,
            "ankle-pitch-l": 1707,
            "ankle-roll-r": 2203,
            "ankle-roll-l": 2160,
            "head-pan": 2050,
            "head-tilt": 2207
          }
        },
        {
          "pauseCycles": 14,
          "moveCycles": 14,
          "values": {
            "shoulder-pitch-r": 1340,
            "shoulder-pitch-l": 2220,
            "shoulder-roll-r": 1804,
            "shoulder-roll-l": 2287,
            "elbow-r": 2050,
            "elbow-l": 1480,
            "hip-yaw-r": 2050,
            "hip-yaw-l": 2050,
            "hip-roll-r": 2123,
            "hip-roll-l": 2010,
            "hip-pitch-r": 936,
            "hip-pitch-l": 2543,
            "knee-r": 2387,
            "knee-l": 1414,
            "ankle-pitch-r": 1794,
            "ankle-pitch-l": 1740,
            "ankle-roll-r": 2157,
            "ankle-roll-l": 2127,
            "head-pan": 2050,
            "head-tilt": 2507
          }
        },
        {
          "moveCycles": 9,
          "values": {
            "shoulder-pitch-r": 1407,
            "shoulder-pitch-l": 2420,
            "shoulder-roll-r": 1837,
            "shoulder-roll-l": 2287,
            "elbow-r": 2383,
            "elbow-l": 1714,
            "hip-yaw-r": 2050,
            "hip-yaw-l": 2050,
            "hip-roll-r": 2123,
            "hip-roll-l": 2010,
            "hip-pitch-r": 1284,
            "hip-pitch-l": 2533,
            "knee-r": 3020,
            "knee-l": 1414,
            "ankle-pitch-r": 2533,
            "ankle-pitch-l": 1714,
            "ankle-roll-r": 2203,
            "ankle-roll-l": 2160,
            "head-pan": 2050,
            "head-tilt": 2207
          }
        },
        {
          "moveCycles": 14,
          "values": {
            "shoulder-pitch-r": 1498,
            "shoulder-pitch-l": 2518,
            "shoulder-roll-r": 1845,
            "shoulder-roll-l": 2248,
            "elbow-r": 2381,
            "elbow-l": 1712,
            "hip-yaw": 2048,
            "hip-roll": 2052,
            "hip-pitch": 1637,
            "knee": 2653,
            "ankle-pitch": 2389,
            "ankle-roll": 2057,
            "head-pan": 2048,
            "head-tilt": 2161
          }
        },
        {
          "moveCycles": 62,
          "values": {
            "shoulder-pitch-r": 1498,
            "shoulder-pitch-l": 2518,
            "shoulder-roll-r": 1845,
            "shoulder-roll-l": 2248,
            "elbow-r": 2381,
            "elbow-l": 1712,
            "hip-yaw": 2048,
            "hip-roll": 2052,
            "hip-pitch": 1637,
            "knee": 2653,
            "ankle-pitch": 2389,
            "ankle-roll": 2057,
            "head-pan": 2048,
            "head-tilt": 2161
          }
        }
      ]
    }
  ]
}
